module github.com/yingshaoxo/fuck1984

go 1.17

require github.com/therecipe/qt v0.0.0-20200904063919-c0c124a5770d

require (
	github.com/gopherjs/gopherjs v0.0.0-20190411002643-bd77b112433e // indirect
	github.com/hashicorp/go-version v1.0.0 // indirect
	github.com/mitchellh/gox v1.0.1 // indirect
	github.com/mitchellh/iochan v1.0.0 // indirect
)
